: ألبومات / Albums

7liwa - La Street
Alpha-A - Archi
Big Breed - F9adnaha
Demon - Wizard
Diib - Avatar
Diib - Revolt
Dr Jay - Glory Ep
Dr Jay - Dwayat
Draganov - Before Colors
Dzak - Natural
Haris Hamza - Slow Mo
Jocker - To9os
Krtas Nssa - Otite
L9bi7 - Fa9r O Chaja3a
Lbenj - Milliard
Levy - Chrollo
Lferda - Cauchemar
Marouane. - Miracle
Mocci - Love Yourself First
Mol Mic - The Come Up
Nikotine - Negro
Nizzy Bee - Hijo de la Reina
Profit Za3im - La Vie Sauvage
Profit Za3im - Fuego
Ra6te - Soprano
Soprime - Carrière
T9il - EP Skr
The Mobb - New Age
Weld L'Griya - 09 EP
Would Cha3b - Cool Chic | كولشي...ك
Yung Kabil - Blue Sky

: ميكستايبات / Mixtapes
Aafia - Humorist
Amine GB - Mixtape Dmaghi Burning
Big Breed - Devils in My Room
Chpipo - L9fel
Crazy Man - C'est Nous
Hamza 15-3 - Beatophile
Mr Wanted - OVNI
S-Boy - Out Of Nowhere
SlimGxnz - Chess
Stormy - Tempestoso
T9il - Sa7i

: أعمال أخرى

يناير
- 01/01 : West - 97ab
- 01/01 : Centrawi - 2000 وتسطات
✓ 01/01 : Lord Mehdi - Not Over (Paroles / الكلمات)
✓ 01/01 : Lbenj feat. Vinci - Affaires (Paroles / الكلمات)
✓ 01/01 : Kouz1 - Trap Roumi (Paroles / الكلمات)
- 01/01 : Lmkhipsi - Fatality
✓ 01/01 : Small X - HLG (Paroles / الكلمات)
- 03/01 : All36 - Savage
- 03/01 : Snaik - Don Bitch
✓ 04/01 : West - Fuck a Fake Friend (Paroles / الكلمات)
- 04/01 : West - 4Eva Heartless Challenge
✓ 04/01 : Hoofer feat. Yakuza - 3arfine (Paroles / الكلمات)
✓ 04/01 : S3R - Va Bene (Paroles / الكلمات)
✓ 05/01 : Guzman - Matmchich (Paroles / الكلمات)
✓ 05/01 : 8ird - Djilali (Paroles / الكلمات)
- 05/01 : Young-R - Hekmet
- 05/01 : Marouane. - Chno Tari
✓ 06/01 : Dizzy Dros - Moutanabbi (Paroles / الكلمات)
- 06/01 : Jocker - Khalatha Tsfa
- 07/01 : Broow - Mrid
✓ 07/01 : Viper - L'Forno (Paroles / الكلمات)
✓ 07/01 : West - Juice (Paroles / الكلمات)
- 09/01 : L'3issaba Muzik - 3la Walou
- 10/01 : Diib - Bug
- 10/01 : ZR feat. T9il & CMRD - BB
✓ 11/01 : Maestro - Khelini (Paroles / الكلمات)
✓ 11/01 : Amir L9wafi - Canette Fanta (Paroles / الكلمات)
- 11/01 : West - Boco 7eba
- 11/01 : Proof.G.K - Look A Live
- 11/01 : Netos - Back
- 12/01 : Lit Eytch - Everyday
✓ 12/01 : Hamza Haris - Slow Mo (Paroles / الكلمات)
✓ 12/01 : Caprice - 1,87M (Paroles / الكلمات)
✓ 12/01 : Krtas Nssa - Rest In Peace (Paroles / الكلمات)
✓ 13/01 : Ali Ssamid - Khab Danni (Paroles / الكلمات)
✓ 13/01 : Der'k - Pecho (Paroles / الكلمات)
- 13/01 : Razin feat. Stoor - No Feelings
- 13/01 : Tflow - Thank You
✓ 14/01 : Snaik feat. T-Flow & Youss45 - Ntaya Mahboul (Paroles / الكلمات)
✓ 14/01 : Bad Flow - Hayda La (Paroles / الكلمات)
✓ 16/01 : Klass-A feat. Smiimi - Walo (Paroles / الكلمات)
- 16/01 : Lotfi El Président - Hope | أمـــــل
- 16/01 : Broow - Kill'em All
- 17/01 : Dzak - Wa7d Khfif
- 17/01 : L3awfi - Nortes
✓ 17/01 : Lbenj - Animal (Paroles / الكلمات)
✓ 18/01 : All36 - Game Over (Paroles / الكلمات)
✓ 18/01 : Dollypran - Senhaji (Paroles / الكلمات)
✓ 18/01 : Lmoutchou - L'Ex D'Fatema (Paroles / الكلمات)
✓ 19/01 : Lord Mehdi - Frère Jacques (Paroles / الكلمات)
✓ 19/01 : Ouenza - He's Back (Paroles / الكلمات)
✓ 19/01 : H-Name - Mati9tch (Paroles / الكلمات)
- 19/01 : Ms Flow - Aloo Amigo feat. Madnees
- 19/01 : Bramfori Feat Red1 - Hamdoullah
✓ 20/01 : Mr Wanted - Le9ta 5 | Trap God (Paroles / الكلمات)
- 20/01 : Mo9ana3 - Hayda Ah
✓ 21/01 : Odyne Kratus x Young Oly & 777nerd - Dig It (Paroles / الكلمات)
✓ 21/01 : Tflow - Bezerba (Paroles / الكلمات)
✓ 22/01 : Pause Flow - Bonne Nuit (Paroles / الكلمات)
- 24/01 : Youss45 - I3adat Tachghil 3a9l
✓ 22/01 : Mr Wanted - Free Sex Ja l3riss (Paroles / الكلمات)
- 25/01 : SlimGxnz - 3ayto L'Nasa (Intro)
✓ 25/01 : Don Bigg - Psycho Wrecking (Paroles / الكلمات)
✓ 25/01 : Diib feat. Art-Smoke - The Temple of Hip Hop (Paroles / الكلمات)
✓ 26/01 : Krtas Nssa - #31# (Paroles / الكلمات)
✓ 26/01 : S-Boy - Low Life (Paroles / الكلمات)
- 26/01 : Mester Alae feat. Lil Youbey - Casatanja
- 26/01 : Big Breed feat. Mardi, Sirius, Shinydice, Serom, Lmouss & L3foo - Holla (Paroles / الكلمات)
✓ 26/01 : Gnawi - Lwalidin | الوالدين (Paroles / الكلمات)
✓ 27/01 : Ily - Loca (Paroles / الكلمات)
✓ 27/01 : Dopage - Kolchi Fayt A Chmayt (Paroles / الكلمات)
✓ 27/01 : Sky feat. Lbenj - Lbayda (Paroles / الكلمات)
- 28/01 : Lgaz - Ikhtissar
- 28/01 : Mister H - F Bladi 3aych Barani
- 29/01 : SlimGxnz - Berlin
- 31/01 : Meta4 - Groupie
- 31/01 : Tflow - Fake Fake Fake

فبراير
✓ 01/02 : Madd feat. Toto - Games (Paroles / الكلمات)
- 01/02 : Bad Jock - Montana Tony
✓ 02/02 : L'Faree9 - Dajij (Paroles / الكلمات)
✓ 02/02 : West - Kchkoucha (Paroles / الكلمات)
- 02/02 : Tflow feat. Beyondo - Mouse Mickey
- 02/02 : Dzak - LManti9
- 02/02 : Pasha - La Vida
- 03/02 : Diib - Language Games
- 04/02 : 9teen - No Break Up
- 04/02 : 3KA - Superstar feat. EA
✓ 04/02 : Pause - Freestyle (Paroles / الكلمات)
- 05/02 : L'Black - 3alam Akhour
✓ 05/02 : Diib - Kankmi (Paroles / الكلمات)
✓ 08/02 : Small-X feat. Dosseh - Kssiri (Paroles / الكلمات)
✓ 08/02 : M-Fix - Validé (Paroles / الكلمات)
✓ 08/02 : Nessyou - Alchemist (Paroles / الكلمات)
- 08/02 : The Last Samuraï - Montreality
✓ 09/02 : NegaPhone - B. B. King (Paroles / الكلمات)
✓ 09/02 : 7-Toun feat. Jocker - Allo Docteur (Paroles / الكلمات)
- 09/02 : Diib - Klah-Ssic
- 09/02 : Eladib - Za3-Za3
- 11/02 : Drizzy - FiyaN3as (Freestyle)
- 11/02 : T9il - Pokeback
- 11/02 : Mocci - Ya Rassi
- 11/02 : Centrawi feat. Nasty Iceberg - Monafi9in/Hypocrites
✓ 12/02 : Ouenza - Valentino (Paroles / الكلمات)
✓ 13/02 : West feat. Mr Crazy - Fake (Paroles / الكلمات)
- 13/02 : Magnum - B/W
- 14/02 : Tendresse - Nta
- 14/02 : Tflow feat. Beyondo - Ooh Yaya
✓ 15/02 : Demon - Tutto Bene (Paroles / الكلمات)
✓ 15/02 : Stoor - Zawali (Paroles / الكلمات)
- 15/02 : Crazy Man feat. West - Avion
- 15/02 : Skaymen - Shotgun
- 16/02 : S-boy feat Shvdow - Overdose
- 16/02 : Dzak - B.C.A.A
- 16/02 : Dzak - Pre-Workout
- 16/02 : Zak8 - Capitaine
- 16/02 : Vimalek - Ex
- 16/02 : RedMic - Dalida (Remix)
✓ 17/02 : Mr Crazy - Khayb (Paroles / الكلمات)
- 18/02 : Dzak - Concentration
- 20/02 : Zanzan - Freestyle 2019 ft. Youss45, Ismeel
- 20/02 : Mocci - Ring Ring
✓ 21/02 : Big Breed - Ro7i (Paroles / الكلمات)
✓ 21/02 : SEA - Twerk (Paroles / الكلمات)
✓ 22/02 : Damost feat Madd - Grammys (Paroles / الكلمات)
✓ 22/02 : Raid - المغرب | FOIII (Paroles / الكلمات)
✓ 22/02 : Ali Ssamid feat. Young Product - Vibe (Paroles / الكلمات)
✓ 22/02 : Weld Lgriya feat. Lz3er - Khemsa 5 Drahem (Paroles / الكلمات)
- 22/02 : Profit Za3im feat. Demon - `Sway3
✓ 23/02 : Tagne - H1N1 (Paroles / الكلمات)
- 23/02 : Crazy Man - Gentille
- 23/02 : Uncle Vato feat. Gasper - Ski Mask
- 23/02 : Shiny Dice - Black Friday (Freestyle)
✓ 24/02 : Tflow feat. Beyondo - CCLV (Paroles / الكلمات)
✓ 24/02 : Hoofer - Sacem (Paroles / الكلمات)
✓ 24/02 : Anys - Première fois (Paroles / الكلمات)
- 26/02 : Snaik - Alyam
- 27/02 : Ashka - Zvba Daba

مارس
- 01/03 : Anouar Essif - Tnakat
- 01/03 : Amiron - Shoot
- 01/03 : Mester Alae feat. Marouan Sidah - Cœur Brisé
✓ 02/03 : S-Boy - Better (Paroles / الكلمات)
- 02/03 : Joakk47 - Dc Chicago
- 02/03 : Centrawi  - Anas
- 02/03 : Soprime - T'rraa..
- 02/03 : Marouane. - M6
✓ 03/03 : Hamza - 15-3 - PunchR🌧in (Paroles / الكلمات)
- 03/03 : Profit Za3im feat. West - High Speed
- 04/03 : Youss45 - Sir Awa T9awd
- 04/03 : Dzak - Dix Vitesse
- 05/03 : Youss45 - Baltagi W Rougoula
✓ 06/03 : Gnawi feat. Nina Williams & Salimoox - Warini Mnin Ndouz (Paroles / الكلمات)
✓ 06/03 : Levy feat. Diib - Azkaban (Paroles / الكلمات)
✓ 07/03 : Zehronin - Dadas (Paroles / الكلمات)
✓ 07/03 : Chimera - NH2B (Paroles / الكلمات)
- 07/03 : T-Flow - Mizi
- 07/03 : Breezy - Ali Zaoua
✓ 08/03 : Diib - Banality (Paroles / الكلمات)
✓ 08/03 : Mons - VR2 (Paroles / الكلمات)
✓ 08/03 : The S feat. Moro, Zeroten, Triuu, DH, West, T-Flow, Demon, Mester Alae, Dini, Crazy Man, Snaik - Old Up 2 (Paroles / الكلمات)
✓ 08/03 : Young Zow - Yow (Paroles / الكلمات)
✓ 09/03 : Lsan L7a9 - Bin Sma w Lma (Paroles / الكلمات)
- 09/03 : Crazy Man - 100K
- 09/03 : Reggio - Datni
✓ 10/03 : Mr Crazy - No Bitch (Paroles / الكلمات)
✓ 11/03 : Pause - Nihil (Paroles / الكلمات)
✓ 12/03 : Der'k - Freestyle Zepek (Paroles / الكلمات)
✓ 12/03 : Lil Eytch - Energy (Paroles / الكلمات)
- 13/03 : MB1 - HGK
- 14/03 : Diib - Madukhch
✓ 15/03 : Clasick Kid - To9os (Paroles / الكلمات)
- 16/03 : Diib - L'khla
- 16/03 : Centrawi - Code
- 16/03 : Dzak - Ego7rid VL2
- 16/03 : Young-R - Dommage
- 16/03 : Vimalek - 2 Faces
✓ 19/03 : M-Fix - L9amous (Paroles / الكلمات)
- 19/03 : Weld l'Griya 09 feat. Weld Lmdina - Mat9isch Ostadi
- 19/03 : Stito - Jemii
✓ 20/03 : Almos - Enemy (Paroles / الكلمات)
- 21/03 : L9bi7 feat Libi - Dfa3 lkarossa
- 21/03 : Ayoun Elhak - Ma Baghich
- 22/03 : Bad Flow - Sabot Out
- 23/03 : L'MNG - Hada Houa Lblan
- 23/03 : WIMi - Trafic
- 23/03 : Ryodan - Herakl
- 23/03 : Gnawi - Sa9si L3ach9in | سقسي العاشقين
- 23/03 : Weld L'Griya 09 - Rawi
- 23/03 : T-Flow - Men L'Wrid
✓ 23/03 : NegaPhone feat. Abdeelgha4 - Bikher (Paroles / الكلمات)
- 24/03 : Drizzy - Parano
- 24/03 : Lotfi El Président - Awbach | أوباش
- 24/03 : Hamza DKM - Freestyle #2
- 25/03 : Big Ely feat. Meta4 - Molo
- 27/03 : Dzak - Trap-Lkarwazi
✓ 27/03 : Lbenj - Fondo (Paroles / الكلمات)
✓ 28/03 : Dopage - Blaga (Paroles / الكلمات)
- 28/03 : Diib - 3ala9ty B Rap
- 28/03 : Sooha - Monalika
- 28/03 : Ms Flow - Game Over
- 29/03 : Amine 16-3 - Akrapovic
- 29/03 : Ra6te - All Dayz
✓ 29/03 : Weld l'Griya 09 - Mowatin Maladi V5 (Paroles / الكلمات)
✓ 29/03 : Hoofer feat. Lazeur, YC - Allô (Paroles / الكلمات)
✓ 30/03 : Demon feat. Moro - Fidèle (Paroles / الكلمات)
- 30/03 : Tflow - Taglag V2
- 30/03 : All36 - Chocolat
- 30/03 : Drizzy El Gringo - Drift
- 30/03 : S3R - Cannapeace
- 30/03 : Dobi - L'walida ft. Nikotine
- 30/03 : Bad Jock - Liberta
✓ 30/03 : Profit Za3im - El Chappo (Paroles / الكلمات)
✓ 30/03 : Kouz1 - Serwalhom Yti7 (Paroles / الكلمات)
✓ 31/03 : Kouz1 - Il Est Là (Paroles / الكلمات)

أبريل
- 01/04 : Lz3er - Sola7fat
- 01/04 : Crazy Man - Vida De Merda
- 01/04 : Dzak - Machi Kitmanitha
✓ 02/04 : Youss45 - Shaun the Sheep (Paroles / الكلمات)
- 03/04 : L'king Meta4 x Big Ely - Da7kine
- 04/04 : Kouz1 - Seniora
- 04/04 : T-Flow feat. El Professor - Ghi à ľ aise
- 04/04 : L'Black - El Salvador
- 05/04 : A-Jey eat. Dr Black - 7mama
✓ 05/04 : Muslim - Ch3andek (Paroles / الكلمات)
✓ 06/04 : L'Morphine - Intro INK (Paroles / الكلمات)
✓ 06/04 : L'Morphine - Rais M'Bolhi (Paroles / الكلمات)
✓ 06/04 : Moro feat Pedro - Amigo (Paroles / الكلمات)
- 06/04 : Dzak - Bikhetisar
- 06/04 : Gnawi feat Hitman Sanchez - Number One 1
- 06/04 : ZS - Gamila
- 06/04 : Lotfi El Président : 3issaba | عصابة
- 06/04 : Snaik - Darbo Lia Ostadi
- 06/04 : Snick Feat Caprice - Siyassat Solta | سياسة السلطة
- 08/04 : Psycho - Haila
- 08/04 : Odyne Kratus feat. Young Oly - YAYA
✓ 08/04 : Drop - Zanaxxx (Paroles / الكلمات)
✓ 08/04 : 7liwa - Olala (Paroles / الكلمات)
✓ 09/04 : Profit Za3im feat. Moro - Watta Cheddo (Paroles / الكلمات)
✓ 10/04 : Klass-A - Al Pacino (Paroles / الكلمات)
✓ 10/04 : XCEP - Drown (Paroles / الكلمات)
✓ 10/04 : Fell'G - Brave Heart (Paroles / الكلمات)
- 10/04 : Queen Luna - M.3.B
- 10/04 : Crazy Man feat. Souhail - Helala
✓ 11/04 : Toto - Bidaoui (Paroles / الكلمات)
✓ 11/04 : Big Boy feat. Lekok - Mobachara Men Dari part4 (Paroles / الكلمات)
✓ 11/04 : L'Morphine - Couteau Suisse (Paroles / الكلمات)
- 11/04 : Diib - Flo-whaat!?
✓ 12/04 : Issam - Makinch Zhar (Paroles / الكلمات)
- 12/04 : Plumière - 7na
- 12/04 : T9il - CaterPillar
- 12/04 : West feat. Dre Domo - STS
- 12/04 : Hashtagi - Tta3addo ft. Swoosh
- 13/04 : Almos feat. Pedro - Hip-Hop
- 14/04 : Wolf Trapzilla - Malayka ft. Roy
✓ 14/04 : Harry 48 - So Bad (Paroles / الكلمات)
✓ 15/04 : Pause Flow - Spin (Paroles / الكلمات)
✓ 15/04 : Krtas Nssa- Iron (Paroles / الكلمات)
✓ 15/04 : L'Faree9 - Ginga (Paroles / الكلمات)
- 15/04 : Biggy - Batman
✓ 18/04 : Kouz1 - Lfrite (Paroles / الكلمات)
✓ 18/04 : Levy - Split (Paroles / الكلمات)
✓ 18/04 : U7 - Sisyphus (Paroles / الكلمات)
✓ 19/04 : Anas feat. Toto - Mira (Paroles / الكلمات)
✓ 19/04 : Odyne Kratus feat Young Oly - Race (Paroles / الكلمات)
- 19/04 : M-Fix - Fake
- 19/04 : Sipo - Halla Walla
- 19/04 : Drizzy - Solo On My Way
- 19/04 : Loun - Sauce
- 19/04 : L9bi7 - Kat7lem B Pablo
- 20/04 : Snaik feat Morad Achkar - Mama Dream
✓ 20/04 : Ouenza - Hey Ouedi (Paroles / الكلمات)
- 21/04 : Dzak - C'est La Vérité (Remix)
✓ 21/04 : Monkey Business Music - Stay in School (Remix) (Paroles / الكلمات)
✓ 22/04 : Klass-A - Prblms! (Paroles / الكلمات)
✓ 22/04 : KDK - The Mic (Paroles / الكلمات)
- 23/04 : Dzak - Al Bari2a البريئة
- 24/04 : Ghost Lawz - Gimme the Lighter
✓ 24/04 : Chimera - Machi Malak (Paroles / الكلمات)
- 25/04 : Sa3er Man - No Feeling
- 25/04 : Dzak - Takht Lkhatr
- 25/04 : Mocci - Ana Nsitek
✓ 25/04 : Scabreux feat. Lbenj - Sbitar (Paroles / الكلمات)
✓ 26/04 : Spleux - Yddek Fih (Paroles / الكلمات)
✓ 26/04 : Mr Crazy - Machi Rjal (Paroles / الكلمات)
✓ 26/04 : OFlayne - JSPF (Paroles / الكلمات)
- 26/04 : L'MNG feat. BigBoy - Werrek
- 26/04 : Weld L'Griya - Ya Mouja
- 26/04 : Young Zow - Haka 3aychin
✓ 26/04 : Qaayel feat. Fell'G - High Life (Paroles / الكلمات)
✓ 27/04 : 7-Toun - Samhini (Paroles / الكلمات)
✓ 27/04 : Levy feat. Uncle Vato & Fargo - D.M.T (Paroles / الكلمات)
✓ 27/04 : Negaphone - Skrt (Paroles / الكلمات)
- 27/04 : 8ird - Egosheitan
- 27/04 : Oza - Sf Sere
- 28/04 : Crazy Man - Gangsta V3
- 28/04 : Gha4Music - Kloun
- 29/04 : Jeka - Freestyle Kurt Cobain
- 29/04 : Ashka - Mie Rda
- 30/04 : Nikotine feat Youss45 - Ta9o Fiya

ماي
- 01/05 : Profit Za3im feat West & Stoor - Finahoma Rjal
- 01/05 : Dzak - Wja3 Trap (M.A.O)
✓ 01/05 : Amine 16-3 - Buzz Pt.2 (Paroles / الكلمات)
✓ 01/05 : Maestro - Halala | هالالا (Paroles / الكلمات)
✓ 01/05 : Amine 16-3 - Buzz Pt.2 (Paroles / الكلمات)
✓ 01/05 : 7ari - Monopoly (Paroles / الكلمات)
✓ 02/05 : Lbenj - Gratata I Daymolition (Paroles / الكلمات)
✓ 02/05 : Xanas feat. Mons - Segreteria (Paroles / الكلمات)
- 02/05 : DH - LaCité
- 02/05 : Romyo - Nadi
- 03/05 : Abdeelgha4 - Casablanca
- 03/05 : SiSimo - Azero
- 03/05 : Tflow Feat Adam - Watani Ghaba
✓ 04/05 : Ali Ssamid feat. Komy - Kan Sogo (Paroles / الكلمات)
✓ 04/05 : Hamza 15-3 - 🎲ice (Paroles / الكلمات)
- 04/05 : Dzak - Las9
- 04/05 : Sbai - T.K.N
- 04/05 : Gnawi - Dyaf Denia
- 04/05 : OML - Bad Bitch
- 04/05 : Ach Man ‐ Calme Toi V2
- 04/05 : Abduh x Yag - Rock N Roll
- 04/05 : Shiny Dice - Butterfly feat. Zakaria Aroussy, Feras Dread
✓ 05/05 : Philo feat. Gha4Music - Ptit Pain (Paroles / الكلمات)
- 05/05 : Der'k - Freestyle 50k
- 05/05 : West - Love
✓ 05/05 : Clasick Kid - So Low (Paroles / الكلمات)
✓ 06/05 : MONS - Lil Pump (Paroles / الكلمات)
✓ 07/05 : L'Morphine - Avatar Intro (Paroles / الكلمات)
✓ 10/05 : Inkonnu - Liyam (Paroles / الكلمات)
- 12/05 : Nizzy Bee - Ronaldo
- 12/05 : Wofa - Koulhoum Ghayb9aw Lour
- 13/05 : Diib - Muay Thai
- 13/05 : S-Boy feat. Youss45 - Facts
✓ 16/05 : Gha4Music - Lovebirds (Paroles / الكلمات)
✓ 17/05 : Shobee feat. XCEP - L'Vibe (Paroles / الكلمات)
- 17/05 : Vimalek - Riding feat. Alien
- 18/05 : Ach Man ‐ Galbi 3amar
- 18/05 : Zenji - 3azzy Klay
✓ 18/05 : Dollypran - Trump (Paroles / الكلمات)
✓ 20/05 : Nizzy Bee - Ga3 Mandem (Paroles / الكلمات)
✓ 20/05 : Ayoun - Cristala (Paroles / الكلمات)
✓ 21/05 : Mr Wanted - Psycho (Paroles / الكلمات)
- 22/05 : Al Kayssar - Veni Vidi Vici V 2
- 23/05 : Jen - Kant
✓ 23/05 : Nizzy Bee - Old (Paroles / الكلمات)
✓ 24/05 : Nizzy Bee - Andalucía (Paroles / الكلمات)
- 24/05 : Nasa - Zan9a
- 24/05 : Shiny Dice - Ballin' feat. Da Goat
✓ 26/05 : Moro - Godzilla (Paroles / الكلمات)
✓ 29/05 : Moro - Nadia L'Jondi (Paroles / الكلمات)
- 31/05 : Nizzy Bee - Montana
- 31/05 : Zak8 - Zombie

يونيو
✓ 01/06 : Moro - Psy (Paroles / الكلمات)
✓ 03/06 : Psychoqueen - No Boyz 2 (Paroles / الكلمات)
- 03/06 : West - Fi9
- 04/06 : Nizzy Bee - Hania
- 04/06 : Ghost Lawz - Black & White
✓ 04/06 : Profit Za3im feat. Moro, Stoor & West - Mala (Paroles / الكلمات)
- 05/06 : Lil Eytch - Ibrahimovic
- 05/06 : Dzak - Tiempo 90's
- 05/06 : Youss45 feat K-LiL - Te9tira
- 05/06 : The Last Samuraï - Gotham
✓ 05/06 : Gnawi feat. Mol Mic - L3echra (Paroles / الكلمات)
✓ 05/06 : Lsan L7a9 - Zreb Teghleb (Paroles / الكلمات)
✓ 06/06 : Lbenj feat Hazim Jam - La Jiti (Paroles / الكلمات)
✓ 06/06 : Ouenza - Cake (Paroles / الكلمات)
- 06/06 : 2Taf - Ara Money
✓ 07/06 : Lmoutchou - Wasabi (Paroles / الكلمات)
✓ 07/06 : Jocker feat. 404 - Lamama (Paroles / الكلمات)
- 07/06 : Meat4 feat. Big Ely - Stay High
- 07/06 : Sigou - Do L7mer
- 08/06 : Madara (Shooka) X AD - Oops
- 08/06 : Demon - Allo Omar
- 08/06 : Dobi feat. Youss45 - Ga3ma Calmet
✓ 08/06 : Psycho - Lwlad Khatar (Paroles / الكلمات)
✓ 09/06 : Ily feat Mayor Bone - Diabla (Paroles / الكلمات)
- 09/06 : Lz3er - 1000 T
✓ 10/06 : Ayoun - Mr Boulevard (Paroles / الكلمات)
✓ 10/06 : Viper - Hysteria V2 (Paroles / الكلمات)
- 10/06 : Tee feat. Illa Illz & Demon - Bando
- 10/06 : Broow - Zawali
- 10/06 : Lordie The Goat - L3a9a o Safi
- 11/06 : U7 - Non Stop
- 13/06 : A-Jey feat. Ra6te - Tla3 Tchoof
- 14/06 : Kania - Inchallah feat. Zairi
- 15/06 : Meat4 - No Ties
- 17/06 : Lord Mehdi feat. Naiir, XKey, Plumière & Wolf - Ça Marche (Apollo Nights #1)
- 17/06 : Ms Flow - Dollar feat. Youss45
✓ 18/06 : Profit Za3im feat. Mr Crazy - Lbato (Paroles / الكلمات)
✓ Hamza Haris - Nsit (Paroles / الكلمات)
- 20/06 : Weld L'Griya 09 - Camarade
- 20/06 : Mol Mic - Kali
- 20/06 : Profit Za3im feat Mr Crazy & Raiss Zakaria - Sa77a Lik
- 21/06 : Skaymen - Cocktail feat. Bezza
✓ 21/06 : Jocker - Msawes (Paroles / الكلمات)
✓ 21/06 : Lbenj feat. Morad - Venga feat. Morad (Paroles / الكلمات)
- 22/06 : Rebel - La Pression
✓ 23/06 : Nessyou - The Daltons (Paroles / الكلمات)
- 23/06 : Weld L'Griya feat. Lz3er - Mowatin M9Sse7
✓ 24/06 : 7liwa - Tchikita (Paroles / الكلمات)
- 24/06 : Wofa - Machi Bhal Bhal
- 25/06 : Hamza Hard - Imta
- 25/06 : Ra6te - Moustaone
✓ 26/06 : Joak - Frrr (Paroles / الكلمات)
- 26/06 : TheMobb - 13
- 26/06 : Gha4Music feat. Drizzy - Ghafreestyles
- 26/06 : Hashtagi - باك لا
- 27/06 : Uncle Vato - RivoDrill
- 27/06 : Chani Man feat. Moro & Stoor - Bad Boys
✓ 28/06 : Magma - I3dam V2 (Paroles / الكلمات)
- 28/06 : L7a9d - Walio
- 29/06 : Gnawi feat. Nina Williams - Wast Lb7ar | وسط البحر
- 29/06 : Dzak - B.C.A.A
- 29/06 : Crazy Man feat Masta Dn - Tendance
- 29/06 : L'Black - Mooka
- 29/06 : Dobi - Hanya
✓ 29/06 : Dopage - Adieu (Paroles / الكلمات)
- 30/06 : Gha4Music feat. Sa3er Man - Jungle

يوليوز

- 01/07 : Mol Mic - Bravo
- 01/07 : Falcon feat. Lfassi - Ara Lfanid
- 01/07 : Zanzan - Oxxxygen
- 02/07 : Stoor feat. Moro & CT - CB4Gang
- 02/07 : Nasa - Solo
✓ 02/07 : Hamza 15-3 - Lee Van Cleef (Paroles / الكلمات)
✓ 02/07 : Mistah Vee - Paris (Paroles / الكلمات)
- 03/07 : Stoor feat. Razin & CT - 3LR
- 03/07 : LJasos - L7ayat | الحياة
- 04/07 : Ach Man ‐ Non Bye feat. Warrior
✓ 04/07 : Tagne - C'est Pas Grave (Paroles / الكلمات)
✓ 05/07 : 8ird feat. Fell'G - Fiction (Paroles / الكلمات)
- 05/07 : L3arbe - Victime
✓ 06/07 : Lord Mehdi feat. NegaPhone - Capitano (Paroles / الكلمات)
✓ 06/07 : Al Nasser - Intro - So It Begins (Paroles / الكلمات)
- 06/07 : Diib - Nobuyuki
- 06/07 : Crazy Man feat. Mr Soultane - Just Après
- 06/07 : Falcon feat. T-Flow - Beslama
- 06/07 : Amiron - Lwa9t
- 06/07 : Snowflake - Dreams
- 07/07 : Mr Wanted feat. T-Flow - Dragon ball
- 07/07 : Lfassi feat T9il - Mi Amore
✓ 07/07 : Ily - Superwoman (Paroles / الكلمات)
✓ 08/07 : Al Mos - Ultras (Paroles / الكلمات)
✓ 08/07 : Meta4 - Last Call (Paroles / الكلمات)
- 08/07 : Sbai -  Panamera
- 09/07 : Ms Flow - Do Lehmar feat. Youss45
- 10/07 : Youss45 feat. Tbiib - Oro Mentalita Ultras
- 10/07 : Diib - Vision
- 10/07 : Centrawi - Freestyle Sans Mixage
- 10/07 : AAFIA - NBDY
✓ 11/07 : Nizzy Bee - Salut Cava (Paroles / الكلمات)
✓ 12/07 : Breezy - 7alawiat (Paroles / الكلمات)
✓ 12/07 : L7or - Lghirb (Paroles / الكلمات)
✓ 12/07 : Abdeelgha4 - Dybala (Paroles / الكلمات)
- 12/07 : Young Zow - KLK
✓ 13/07 : TheMobb (Oly Young x Odyne Kratus x Shaynaa) feat. L'Black - Bless (Paroles / الكلمات)
- 13/07 : Brako - Tanger-Malaga
- 13/07 : Dzak - Ana
- 13/07 : RedMic - Chiki
- 13/07 : Oza - Fu***ng Life
- 13/07 : T9il - Aweli
- 14/07 : Weld L'Griya - General V2
- 14/07 : Sa3er Man - La Vida
- 17/07 : Marouane. - No Fear
- 19/07 : Profit Za3im x LGRAD - `Allo Allo'
- 19/07 : Hamid Vff - Mowgli
✓ 20/07 : Pause - Sadou (Paroles / الكلمات)
✓ 20/07 : Pause feat Bermuda - Nausea (Paroles / الكلمات)
- 20/07 : BigBoy - Batbat Mkom
- 20/07 : West feat. Kooyo - Flous
- 21/07 : Ashka - Awdii
✓ 21/07 : Snaik feat. Adam Mony - Khawa Khawa (Paroles / الكلمات)
- 22/07 : Youss45 feat. Mr Sam- Kantkhayel
- 23/07 : Rafff - B.A.B.Y
✓ 24/07 : Mr Crazy feat. Dandani - VNTM (Paroles / الكلمات)
- 24/07 : Gha4Music feat. Lil Eytch - 9DD
- 25/07 : Zepekeño - Favelas Dosa #1
- 26/07 : Lordie The Goat - Yacht
✓ 26/07 : Zanzan - Boorkan (Paroles / الكلمات)
✓ 26/07 : Weld l'Griya - Allo l'Faylasof (Paroles / الكلمات)
✓ 26/07 : Dollypran - Trax (Paroles / الكلمات)
✓ 27/07 : Kouz1 - Story Insta (Paroles / الكلمات)
✓ 27/07 : Diib - Diibologie 19 (Paroles / الكلمات)
- 27/07 : X7KIRA - Darb Calvin Klein
- 27/07 : Youss45 feat. Mc Ano 1 - New Shit
- 27/07 : J...N (Dem Lbared) - Machi L'Bi3
- 27/07 : A-Jey feat. Anas Yan - TLA7I | تلاحي
✓ 28/07 : Ali Ssamid - Loumoni (Paroles / الكلمات)
✓ 28/07 : 7-Toun - Zarga (Paroles / الكلمات)
- 29/07 : Stoor feat. Profit Za3im - Zid F Taman
- 29/07 : Sa3er Man - Hua Elli
- 29/07 : Ms Flow - Fink Al Ms2oul
✓ 30/07 : Mons feat. Flenn - Labass (Paroles / الكلمات)
✓ 30/07 : Anys - Gha B Love (Paroles / الكلمات)

غشت

✓ 01/08 : T-Flow - Gareth Bale (Paroles / الكلمات)
✓ 02/08 : Lil Eytch - Woow (Paroles / الكلمات)
- 02/08 : TheMobb feat. 36Whyte - Gamble
- 02/08 : IZY - 7erki Dak Tarf
- 02/08 : Nizzy Bee - Dyab
- 03/08 : Abduh x Yag - Low
- 03/08 : Xkey - Baghi feat. Wolf Trapzilla
- 03/08 : Dzak - Dars Fta9wiya
- 03/08 : Shiny Dice - Machine Gun Funk (Remix)
✓ 03/08 : Toto - Groupies (Freestyle) (Paroles / الكلمات)
✓ 03/08 : Aminoffice - Putsch (Paroles / الكلمات)
✓ 04/08 : Breezy - Adriano (Paroles / الكلمات)
✓ 04/08 : Dini - Ganar 4 (Paroles / الكلمات)
- 04/08 : Nerd-X - Cowboy
✓ 05/08 : Ssamid feat. Loco Lghadab - Capitanos (Paroles / الكلمات)
- 07/08 : Nizzy Bee - Rosalia
- 07/08 : Brako - Intro
✓ 08/08 : Lsan L7a9 feat. Lil Wow Baby - Escuchame (Paroles / الكلمات)
✓ 08/08 : KDK - Gold Skhoon 2.0 (Paroles / الكلمات)
- 09/08 : Loun - SpaceTune
- 09/08 : Young Zow - Awah
✓ 09/08 : Bezza feat. Toto - Kennedy (Paroles / الكلمات)
✓ 09/08 : Mol Mic - Zoom Zoom (Paroles / الكلمات)
- 10/08 : Lafounares - Pornares (Freestyle)
- 11/08 : One Ace - Pour les miens
- 11/08 : One Ace - Déter
- 11/08 : Reggio - F.D.W
- 11/08 : Miseur - C'est la vie qu'on va mener feat. Profit Za3im
✓ 11/08 : Diib - Gattuso (Freestyle) (Paroles / الكلمات)
✓ 11/08 : Mocci - Jani khbarek (Paroles / الكلمات)
✓ 12/08 : Psychoqueen feat. Houssainy - LYAM | ليام (Paroles / الكلمات)
✓ 12/08 : Stormy - 777 (Paroles / الكلمات)
✓ 13/08 : Vega - Gouliya (Paroles / الكلمات)
✓ 13/08 : L3arbé - Ajmal Hadiya (Paroles / الكلمات)
- 13/08 : Hamza DKM - Ankhwi Lblad feat. Caprice
- 14/08 : Zenji - Bouhdi
✓ 14/08 : Raid - Inexact (Paroles / الكلمات)
✓ 16/08 : Lil Eytch - 3ty L'Mo (Paroles / الكلمات)
✓ 16/08 : Negaphone feat. Lord Mehdi - MDW (Paroles / الكلمات)
✓ 16/08 : Nizzy Bee - Trois Bandes (Paroles / الكلمات)
- 16/08 : Sa3er Man - WTF (Freestyle)
- 16/08 : ElGrandeToto - VendrediStyle EP1
- 16/08 : Hashtagi - 9I.6
- 17/08 : Crazy Man - Tendance 2
- 18/08 : Nizzy Bee - 3araba
- 18/08 : Ice Akatsuki - Kmi Kmak
- 19/08 : 9teen - Zerqa
- 19/08 : Ms Flow - No 3chiri feat. Youss45, Dark Ness
✓ 20/08 : Lbenj feat. Warri - Chicha (Paroles / الكلمات)
✓ 20/08 : Clasick Kid - Megaphore (Freestyle) (Paroles / الكلمات)
- 20/08 : Ghost Lawz - Tortilla
✓ 20/08 : Cody - Fine Ghadi (Freestyle) (Paroles / الكلمات)
- 21/08 : Kania - Bang
- 21/08 : Demon - 3.2.4
- 21/08 : Nizzy Bee - F5ater
- 21/08 : White Nigga - Look Alive
- 21/08 : Youss45 - Fes 7akma 3alam feat. Abdo Jouker, Boysin
- 23/08 : Nizzy Bee - Lflouss
- 23/08 : Ach Man ‐ Calme Toi V3
- 23/08 : Mester Alae - 4Pila
✓ 23/08 : Mons - Bye (Paroles / الكلمات)
- 24/08 : Brako - Freestyle 9dim
✓ 25/08 : Madd - Karma (Paroles / الكلمات)
✓ 25/08 : Sooha - Niya (Paroles / الكلمات)
✓ 27/08 : Lbenj - Loto (Paroles / الكلمات)
✓ 27/08 : L'Faree9 - Highfive Freestyle (Paroles / الكلمات)
- 27/08 : Mocci - Mamenhomshi
✓ 28/08 : 7liwa - Dinero (Paroles / الكلمات)
✓ 28/08 : Diib - Signs (Paroles / الكلمات)
✓ 29/08 : Raid - Fermat (Paroles / الكلمات)
- 29/08 : Dzak - Machi Haka Tmanitha
✓ 30/08 : Dollypran - Carnaval (Paroles / الكلمات)
✓ 30/08 : T-Flow - Sultan (Paroles / الكلمات)
✓ 30/08 : Shobee feat. Lomepal - Ciel (Paroles / الكلمات)
✓ 31/08 : Plumière feat. NegaPhone - 23 (Paroles / الكلمات)
✓ 31/08 : l'Mugy - Rissala (Paroles / الكلمات)
- 31/08 : Dobi - Lحarga
- 31/08 : Young Zow - Zin Li Fik
- 31/08 : R-D - Amsterdam feat. Xir, Ali Ssamid

شتنبر

- 01/09 : Pasha - Life feat. Diablo
- 01/09 : La Scie - Mamlitch ft. Faube
✓ 02/09 : Ouenza - Babe (Paroles / الكلمات)
✓ 02/09 : Lmoutchou - Alcootest (Paroles / الكلمات)
- 02/09 : Youss45 - 7it Mardi feat. Simo Zaen
- 04/09 : Netos - C.R.L
- 04/09 : Ice Akatsuki - Dhab & Fedda ft. Freezy
✓ 06/09 : Young-R feat. Moro - B.W.S. (Paroles / الكلمات)
- 06/09 : Nikotine - Orangina feat. Diablo
- 06/09 : Aziz - Mouchkila
✓ 07/09 : Shayfeen - Blessed (Paroles / الكلمات)
- 07/09 : L'Black - My Team
- 07/09 : 3KA - YNB feat. EA
- 10/09 : Phobia 51 - Bin Eddroub
- 11/09 : DJ Joe - Ora No feat. Ayo
✓ 12/09 : L'Morphine - Robot (Paroles / الكلمات)
✓ 12/09 : DH - Niffauw (Paroles / الكلمات)
✓ 13/09 : NegaPhone - Amsaf (Paroles / الكلمات)
✓ 14/09 : Dada - Agogo (Paroles / الكلمات)
- 14/09 : Spinoza - Koulha ft. Mostroo
✓ 15/09 : Profit Za3im feat. Moro  - La Dose (Paroles / الكلمات)
- 15/09 : White Nigga - Gravedigger
- 15/09 : Wofa - I Dont Give A Fuck
- 17/09 : 9teen - Ghada Tji ft. Godjek
✓ 17/09 : 8IRD - Lady Dada (Paroles / الكلمات)
✓ 17/09 : Moro - Ta Hada 7al (Paroles / الكلمات)
- 18/09 : Diib feat. Uncle Vato - Fire 2
- 18/09 : Lordie The Goat - Grams
✓ 18/09 : Psychoqueen - Yarbi Dir Tawil (Paroles / الكلمات)
✓ 19/09 : Dizzy Dros - Air Max (Paroles / الكلمات)
- 20/09 : Young Zow - Sir
✓ 20/09 : Mr Crazy - AMG (Paroles / الكلمات)
✓ 21/09 : L3arbé - Miyek (Paroles / الكلمات)
- 21/09 : Sipo - Patrona
- 21/09 : The Last Samuraï - Cannabis
- 21/09 : Ms Flow - 7erada F Rap feat. Fire
✓ 22/09 : Lil Eytch - Trapstar V2 (Paroles / الكلمات)
✓ 22/09 : Fat Mizzo - Kan Drik (Paroles / الكلمات)
- 22/09 : Youss45 - Reincarnation
- 24/09 : Hamza 15-3 -Rep🔄at
- 24/09 : Lafounares - Damn
✓ 25/09 : Profit Za3im - Ghamer Wla Ghader (Paroles / الكلمات)
- 25/09 : Loco Lghadab - Hell | الجحيم
- 26/09 : Breezy - Da7ia
✓ 26/09 : A-Jey - Broken feat. Ily (Paroles / الكلمات)
- 27/09 : Nikotine - Papa
- 27/09 : Nortogang - 0.allo
✓ 27/09 : Zimba - Rise (Paroles / الكلمات)
- 28/09 : Diablo - 13 Goda
- 29/09 : Shiny Dice - Euphoria feat. Moovd
- 30/09 : Nikotine - Clochard
- 30/09 : Diablo - 1.3.1.2
- 30/09 : Diablo - Uno feat. Jocker
✓ 30/09 : Amine 16-3 feat. L'Morphine - 2 Salopards (Paroles / الكلمات)
✓ 30/09 : Bad Flow - Ça Va (Paroles / الكلمات)

أكتوبر
- 01/10 : L3awfi - Power
- 01/10 : Veleno VLN - Ghan'visé
✓ 02/10 : Uncle Vato - Men Zen9a Njibo L3a9a feat. .Exe, Gasper (Paroles / الكلمات)
- 02/10 : Marouane. - Rio feat. Moro
- 02/10 : Phobia 51 - Over Dose
- 03/10 : Dzak - Poke
✓ 03/10 : Diib - Unstable (Paroles / الكلمات)
✓ 03/10 : Nizoo - Sauvage (Paroles / الكلمات)
✓ 04/10 : Spleux - Ouuw Yeah (Paroles / الكلمات)
✓ 04/10 : Negaphone - Ya Rayah feat. Abdeelgha4 (Paroles / الكلمات)
✓ 04/10 : Pweepa - Oh Merde (Paroles / الكلمات)
✓ 04/10 : Mons - Ya Rayah (Paroles / الكلمات)
✓ 04/10 : Makaveli feat. Brown Y - Just Wait (Paroles / الكلمات)
- 04/10 : All36 - Khatrek
- 04/10 : Sigou feat. Zaka Scoobs - L'Oseille
- 04/10 : Diablo - Ennemies
✓ 05/10 : Mo9ana3 - Skout (Paroles / الكلمات)
✓ 05/10 : Young-R feat. Mr.M Ruthles - Ok Bye (Paroles / الكلمات)
- 05/10 : Youss45 - Koula w Dourouf
- 05/10 : Fatma - Valider
- 05/10 : L'Mugy - Elixir
- 05/10 : Ach Man ‐ Diwana
- 05/10 : Dopage - Allo
- 06/10 : UntitleD VII - Ice Cream Man
✓ 06/10 : Ra6te - All Jay (Paroles / الكلمات)
- 07/10 : Zenji - Cannabis
✓ 08/10 : L'Morphine - L'Morphiniya 33 (Paroles / الكلمات)
✓ 08/10 : Drizzy - Chitana feat. Anys (Paroles / الكلمات)
- 08/10 : Biggy - Ufo ft. Lilo
✓ 10/10 : DH - Fidèle (Paroles / الكلمات)
- 12/10 : Bosho - Décollage
✓ 12/10 : Drop - Casanova (Paroles / الكلمات)
✓ 12/10 : Crazy Man - Tendance 4 (Paroles / الكلمات)
✓ 12/10 : H-Name - Ibada (Paroles / الكلمات)
- 12/10 : Brak - Ya Li Ghayeb feat. $hmoula
- 12/10 : Nasa - Loca
- 12/10 : 3KA - Ain't the Same feat. Nerd-X
✓ 13/10 : Lbenj - Ghdara (Paroles / الكلمات)
✓ 13/10 : Moro - Dracula (Paroles / الكلمات)
✓ 13/10 : Moro - Patera (Paroles / الكلمات)
✓ 14/10 : Amine 16-3 feat. Diib - Marcopolo (Paroles / الكلمات)
- 14/10 : Chwakere - 7oulmi B3id
- 14/10 : Dzak - Petit Cadeau
- 14/10 : Ghost Lawz - Tangier By Night
✓ 15/10 : Shayfeen - Mendima (Paroles / الكلمات)
✓ 15/10 : Ali Ssamid - Kifach Te3raf (Paroles / الكلمات)
- 15/10 : White Nigga - Crook
- 16/10 : West - Grave (Remix)
✓ 16/10 : Klass-A - Mocro Rabat (Paroles / الكلمات)
✓ 16/10 : Savage Plug - Gang feat. 7liwa (Paroles / الكلمات)
- 17/10 : Modmen - 17-10
- 17/10 : Noobir - Yji Yakhedha
✓ 18/10 : ElGrandeToto - VendrediStyle EP2 (Paroles / الكلمات)
✓ 18/10 : Lbenj - Eh! (Paroles / الكلمات)
✓ 18/10 : L'Faree9 feat. Silver Wizy - Epical (Paroles / الكلمات)
- 18/10 : Berry - Alright
- 18/10 : Charaf - L'bands
- 18/10 : Kalash Nikov - Hasta La Noche feat. Assir
- 19/10 : West - Bitch feat. Noyzzz
- 19/10 : Dzak - Bawlo
- 19/10 : Sbai - Ya Liyam
- 19/10 : Mostroo - Molotov
- 19/10 : Whyzee - Kanbano B3ad feat. Jony Pipo
✓ 19/10 : Furelise - 771 (Paroles / الكلمات)
✓ 19/10 : Mons - Dream (Paroles / الكلمات)
- 20/10 : Profit Za3im - Zahia
- 21/10 : Salim - Midnight Express
- 23/10 : La Zone - Ep.1
- 23/10 : Brako - Hayawanat feat. Primo
- 23/10 : 7x7 Dark - C90
- 24/10 : Profit Za3im - Inshaalah feat. Nikotine
- 25/10 : Plumière - Iceberg feat. Saad
✓ 25/10 : Lferda - Respect (Paroles / الكلمات)
✓ 25/10 : Krtas Nssa - Super Bitch (Paroles / الكلمات)
- 25/10 : Mr Crazy - Mamma Mia feat. Issam Kamal
- 26/10 : Ily - Loserbitch
- 26/10 : Sa3er Man - Yah
✓ 26/10 : Young Zow - Occupé (Paroles / الكلمات)
✓ 26/10 : Lsan L7a9 - Pas de problème (Paroles / الكلمات)
✓ 26/10 : Pause - Codex Gigas (Paroles / الكلمات)
- 26/10 : Mr.Caprice - Khasek Tgol
- 26/10 : Tiger HM - L'Oseille
- 26/10 : Gha4music - Life (Outro)
- 26/10 : Mocci - Kulshi Daa3
- 27/10 : 3okacha - Ktabi
- 27/10 : Hardy Flow - Peaky Blinders
- 27/10 : Tendresse - J.L.G.M feat. Don Bigg
- 27/10 : Soorci - La Banda 68 feat. Zen Dakh, Dady
- 27/10 : Diib - Himalaya
✓ 28/10 : Madd - Sacrifice (Paroles / الكلمات)
- 28/10 : Diablo - Chambre 8 feat. Nikotine
- 28/10 : Diablo - Mauvais Affaire
- 28/10 : Diablo - Suka Blad feat. Nikotine
- 29/10 : Izi - Paris c'est magique
- 29/10 : ZR - Maladie feat. T9il
- 29/10 : Youss45 - Clash m'y Self
- 29/10 : Krtas Nssa - Bga3 Love
- 29/10 : Bramfori - Hada Ula Hada
✓ 29/10 : Clasick Kid - Sakt (Paroles / الكلمات)
✓ 29/10 : Weld l'Griya 09 - 3acha Cha3b feat. Lz3er, Gnawi (Paroles / الكلمات)
- 30/10 : Big Breed - 7asska Masska
- 30/10 : Big Breed - Hal Fal
- 30/10 : Callmeicon - Brevet 1
- 30/10 : Diablo - La Rage feat. Nikotine
✓ 30/10 : Psychoqueen - L'Vibe (Paroles / الكلمات)
- 30/10 : Djamal - 7afla Salat
- 30/10 : Bingo - Marokino
✓ 30/10 : USKY - Addictions feat. Ouenza (Paroles / الكلمات)
✓ 31/10 : ElGrandeToto - Counter Strike (Paroles / الكلمات)
- 31/10 : Marouane. - R.T.9 feat. Profit Za3im
- 31/10 : 7mad feat. MC Kerrou - Chkoun Had Jouj
- 31/10 : Big Breed - A'Nachat
- 31/10 : Big Breed - 3aycha 9andicha

نونبر

✓ 01/11 : Mester Alae feat. Snaik - Hena W Homa (Paroles / الكلمات)
✓ 01/11 : Lferda - Mi Amore feat. Witness, Kouz1 (Paroles / الكلمات)
✓ 01/11 : Stormy - Makandemch feat. Yakuza (Paroles / الكلمات)
✓ 01/11 : Levy - Wendigo (Paroles / الكلمات)
✓ 01/11 : Amine 16-3 feat. Iguidr - Lkhobz Lbayt | الخبز البايت (Paroles / الكلمات)
✓ 01/11 : Pweepa - XXL (Paroles / الكلمات)
- 01/11 : Xkey - Dollar Bills feat. Draganov
- 01/11 : Drizzy - Arayi
- 01/11 : Jech L9ba7 - Freestyle Part 1
- 01/11 : Skaymen - Smile
- 01/11 : Jilali Fantome - Allo Police
✓ 02/11 : Clasick Kid - Wri9a (Paroles / الكلمات)
✓ 02/11 : Mr Crazy - Tayer (Paroles / الكلمات)
- 02/11 : Scabreux - Wow feat. West
- 02/11 : Hardy Flow - Number Uno
- 02/11 : Nikotine - Caniche
- 02/11 : Ayoun Elhak - Dik Sata feat. Dr. Black
- 02/11 : Ach Man ‐ Hay Mohammadi feat. BTrone, Z-One, Y-K, Shark-Man, Warrior
- 02/11 : Kouz1 - Ghselty Tbassel Sire Syaq
- 02/11 : Streety - Feeling Blue feat. Doorknocker
- 02/11 : Diablo - La Zone Ep 2 feat. Pasha
- 02/11 : Uncle Vato - Ok ! Tsenaw
- 02/11 : Mister MJ - Old Shet
- 02/11 : Ms Flow - Fes Hakma Tazi feat. Youss45
- 03/11 : Diib - Molotov
- 03/11 : One Ace - Passion
- 03/11 : Sdam - Live the Life feat. Youss45
✓ 04/11 : Drop - Popcorn (Paroles / الكلمات)
- 04/11 : Noobir - Hitting All the Targets
- 04/11 : L'Black - Senorita
- 04/11 : Rebel - Ibi9or
✓ 05/11 : Marouane. feat. Demon - Wayak d'zbali (Paroles / الكلمات)
- 05/11 : Zak8 - Narcos
- 05/11 : Modmen - Ghost Writer
- 05/11 : Adam Mony - My Way feat. Snaik
- 05/11 : Nikotine - 3acha Cha3b feat. Diablo
- 05/11 : Smiix324 - Papa, je suis criminel !
✓ 06/11 : Uncle Vato - Danger (Paroles / الكلمات)
- 06/11 : Profit Za3im - Gauche Droit
- 06/11 : Mng917 - 80 Bpm
- 06/11 : Youss45 - Kifah feat. Abdo Jouker
- 06/11 : Dzak - Point Mort
- 06/11 : Bramfori - Zero V2
- 07/11 : Musta - 9alb Mahmoum feat. Youss45
✓ 07/11 : Negaphone - Dinero feat. DJ Smemo (Paroles / الكلمات)
✓ 08/11 : Lferda - À l'époque feat. Tagne (Paroles / الكلمات)
✓ 08/11 : Mr Crazy - Weld Derb (Paroles / الكلمات)
✓ 08/11 : Psychoqueen - Nsitek feat. Wissam, Bouchra & Drop (Paroles / الكلمات)
- 08/11 : Enimaa - Godfather
✓ 08/11 : Komy - J.I.T (Paroles / الكلمات)
- 08/11 : Dobi - Fabor
- 09/11 : Dobi - 00:30
- 09/11 : Snaik - Lewel
- 09/11 : Magnum - Murder Ep1
- 09/11 : Taaygaar - Sbah Lkher
- 09/11 : Brako - 0 Followers feat. Skynet
- 09/11 : 2Taf - Mode avion
- 09/11 : Diablo - Tourni feat. Broow
- 09/11 : Loco Lghadab - Cobra | الكوبرا
- 09/11 : RedMic - Vida
- 09/11 : Reggio - Spy
- 09/11 : Wofa - Wow
- 10/11 : Stoor - Casa Zoo feat. Q-Zain
- 10/11 : Hamza DKM - Mbappé
- 10/11 : Momo - Outsdr feat. Ouenza
- 10/11 : 7x7 Dark - Hard Life
- 10/11 : 7x7 Dark - HeroWine
- 10/11 : 7x7 Dark - Amprovise
- 10/11 : 7x7 Dark - Señorita
- 10/11 : 7x7 Dark - Party feat. Youss45
- 10/11 : 7x7 Dark - HelloWilly feat. Psych Up
- 10/11 : Phobia 51 - Haraga V2
✓ 11/11 : Lil Assaf - MVI (Paroles / الكلمات)
- 11/11 : Dzak - Ba9i
- 11/11 : Ayman - Barrio feat. KingSmoke
- 11/11 : Sdam - Chkoune Y7ase B Chkoun
- 11/11 : Jeka - Nodnayd
✓ 12/11 : Demon - Btana feat. Moro, Nizzy Bee (Paroles / الكلمات)
- 12/11 : Abzaou - La Mort
✓ 13/11 : Furelise - Rihanna (Paroles / الكلمات)
- 13/11 : Yasine - Miyek 3lina
- 13/11 : Big Breed - Khorotos
- 13/11 : Jilali Fantome - Tmax 3an 3an
- 13/11 : Gnawi - 7shayshi
- 14/11 : Oza - B3ed
- 14/11 : Nasa - Bonita
- 14/11 : Romyo - Nueva Vida
- 14/11 : Nizzy Bee - Sla
- 14/11 : The Last Samuraï - Dark Zone feat. OtKing
✓ 15/11 : Lbenj - Ok BB (Paroles / الكلمات)
✓ 15/11 : Dollypran - Chiico feat. ElGrandeToto (Paroles / الكلمات)
- 15/11 : Young Zow - Click Play
- 15/11 : Clasick Kid - 3KS feat. Mobb West, Xico92
- 15/11 : Nerd-X - Rendez-vous
- 16/11 : Brako - No More feat. Stoor, Razin
- 16/11 : Netos - G.3.R.F
- 16/11 : Nikotine - Déjà Mal
- 16/11 : Beyondo - Storia
- 16/11 : Assil - Dayz
- 16/11 : Xfan - Alif 4
- 16/11 : Youss45 - Fes Hakma L3alam v2 feat. Abdo Jouker
✓ 16/11 : Ra6te - 3on Sorry (Paroles / الكلمات)
✓ 17/11 : Maestro - Fidèle (Paroles / الكلمات)
- 17/11 : Mck1ng - Cash
- 17/11 : Lgaz - Lgana
- 17/11 : Phobia 51 - Kanchof Bl9alb
- 18/11 : Phobia 51 - محكوم بالإعدام
- 18/11 : Nbigha - Mestokéé
- 18/11 : Blaz - Freestyle 1 feat. West
- 19/11 : Nikotine - Negro
- 19/11 : Shiny Dice - Hope feat. Saby Buff
- 19/11 : Ms Flow - Machi Lkhatri feat. Youss45
- 20/11 : Lil Psycho - Gha Bde7k
- 20/11 : Mr Orch - Kolchi Tafi
- 20/11 : Spleux - WeedNess Day Freestyle
- 20/11 : Naiir - Lonely Nights
✓ 21/11 : Witness - Valderrama (Paroles / الكلمات)
✓ 21/11 : Lordie The Goat - Lit feat. Anys (Paroles / الكلمات)
✓ 21/11 : Tagne - Génération Bizarre 1 (Paroles / الكلمات)
✓ 21/11 : Drizzy - Mia feat. Ily (Paroles / الكلمات)
✓ 22/11 : Snor - Lgana (Paroles / الكلمات)
- 22/11 : Jocker - Hania feat. 404
- 22/11 : Mocci - Hada Mashi 3alami
- 22/11 : Tendresse - Man7oot | المنحوت
- 24/11 : Nizzy Bee - Rolex
- 25/11 : Rafff - Li 3waj
- 25/11 : Chwakere - Full Speed
✓ 25/11 Grünt #39 Feat. Casablanca x (Dollypran, Kouz1, Damost, Fell'g, 8ird & Snowflake) (Paroles / الكلمات)
✓ 26/11 : Demon - Testre (Paroles / الكلمات)
- 27/11 : Lafounares - Hustlers ft. Doc-M
✓ 28/11 : Amine 16-3 - Trombia (Paroles / الكلمات)
- 29/11 : Callmeicon - 29
✓ 29/11 : Weld l'Griya.09 - Mouwatin Maladi V6 (Paroles / الكلمات)
✓ 29/11 : 7ari - OK? (Paroles / الكلمات)
- 30/11 : S-Boy - Babe
✓ 30/11 : Negaphone - Malgré M9awda (Paroles / الكلمات)
✓ 30/11 : Dollypran - Khari (Paroles / الكلمات)
- 30/11 : Drizzy - Fake Love

دجنبر
✓ 01/12 : Hoofer - Woofer (Paroles / الكلمات)
✓ 01/12 : Madd - DD (Paroles / الكلمات)
✓ 02/12 : West - مراد (Paroles / الكلمات)
- 02/12 : Eladib - Darkside
- 03/12 : Sbai - Mood
- 03/12 : Dzak - Dzagora
- 03/12 : Samma King - Yaya Toure ft. Rafa G
✓ 04/12 : Youss45 - Sexfriend's (Paroles / الكلمات)
✓ 04/12 : H-Name - Mayhemek (Paroles / الكلمات)
- 04/12 : Lil Eytch - 00H
✓ 05/12 : Abdeelgha4 feat. Negaphone - God Damn (Paroles / الكلمات)
- 05/12 : 3okacha - S7ab
✓ 06/12 : MBIW feat. Tahv - Maarefch (Paroles / الكلمات)
✓ 06/12 : Young-R - La Vida (Paroles / الكلمات)
- 06/12 : Ljasos - Euro feat. Hamza Hard
- 06/12 : Mr Crazy - Liyam A Liyam
- 06/12 : Jilali Fantome - Loco
- 07/12 : Snow Ken - Ghadi Bohdi
✓ 08/12 : L3arbé feat. Capitain - Pubg (Paroles / الكلمات)
- 09/12 : Wofa - Machi A L’Aise
- 11/12 : Big Breed - Hunger Game
- 12/12 : Ashka - SysWow64
✓ 12/12 : Jocker - No Love V3 (Paroles / الكلمات)
- 13/12 : Nessyou - Moha
- 13/12 : Lemhlwess - Punk Angel
✓ 13/12 : Noyzzz feat. West - 3chiri  (Paroles / الكلمات)
✓ 14/12 : l'Morphine - Taha Lkobra V3 (Paroles / الكلمات)
✓ 14/12 : Muslim - Caballero (Paroles / الكلمات)
- 14/12 : Nizzy Bee - Ch7al F Sa3a
- 14/12 : Orientanarchy - Mood
- 15/12 : Aziz - Nanah
- 15/12 : Amiron - Old Classic
- 15/12 : CefMoon - Badr Army ft. Joseph
- 16/12 : Salim - Wa Ya 7nini (Freestyle)
- 18/12 : Bad Jock - Kassi
- 18/12 : Maestro - Msameh
- 18/12 : Rafff - Mabghitch Cash
- 20/12 : Marouane. - Çava Nit
- 20/12 : Patro - Ghayb9aw Tlamed
✓ 20/12 : Loun - Ain't Nothing Can Put Me Back (Paroles / الكلمات)
✓ 21/12 : Zanzan - Makrahnach (Paroles / الكلمات)
✓ 21/12 : Dini - TN1 (Paroles / الكلمات)
- 21/12 : Adil Bakkouri - Yo Soy Mejor
- 21/12 : Mostroo - Fake ft. Mng917
- 21/12 : Diib - Banality V2
- 21/12 : Cody - Cuba
- 21/12 : Zre9a - Routine
- 21/12 : Dimi - Mi Amor
- 21/12 : Abduh x Yag - Automatic
✓ 22/12 : Cody - Cuba (Paroles / الكلمات)
- 22/12 : Zenji - Woody
- 22/12 : T9il feat. Camarad - Wagandi
- 22/12 : Laarbi - No Limit ft. Prince
- 22/12 : Smiix324 - All'Estero ft. Youss Yakuza
- 23/12 : Tony P - Trap Nayda ft. Zeta Cooper
- 24/12 : Noobir - Men Zero
- 24/12 : Hamada - Story F Story
- 24/12 : Ice Akatsuki - No Sleep
✓ 24/12 : Klass-A - Call Me (Paroles / الكلمات)
- 25/12 : Zepekeño - Chicharito
- 25/12 : Lz3er - Lmawt Lkhawana
- 25/12 : Ach Man - Espoir ft. BTrone
- 25/12 : Demon - 25 3am ft. Oussama Jarfe
- 26/12 : Wolf Trapzilla - Work ft. Lord Mehdi
- 26/12 : Mr Orch - One Two ft. Modmen
✓ 26/12 : Komy - Dnia (Paroles / الكلمات)
✓ 26/12 : Chaos - Ta7 Niveau (Paroles / الكلمات)
✓ 27/12 : ElGrandeToto - 7elmet Ado 4 (Paroles / الكلمات)
- 27/12 : The Mobb - Loose
- 27/12 : Orientanarchy - Devil ft. 2Taf
- 27/12 : L9bi7 - Ana Lghaltan Machi Nti
- 27/12 : L'Faree9 - Sakan Trou7 Tri7
- 27/12 : Stovskii - Back to Back
- 27/12 : 3okacha - Yemma
- 27/12 : Hashtagi - Halal
✓ 28/12 : Ra6te - Lifechkel (Paroles / الكلمات)
✓ 28/12 : Profit Za3im - Les Infidels ft. Dini (Paroles / الكلمات)
- 28/12 : Hill Shooka - Nbel Blow Ha
- 28/12 : Lhaj - BIM ft. West
- 28/12 : Abdeelgha4 - Down
- 28/12 : Diib - (ض) (freestyle)
- 28/12 : M-Fix - S3ib ft. 7-Toun
- 28/12 : Young Product - 44 ft. KDK
- 28/12 : Zapa - Maria ft. Saad
- 28/12 : Snaik - Chui Pas La
- 28/12 : Djamal - Lazio
- 29/12 : West - Foundi ft. Lhaj
- 29/12 : Young Zow - Glab Mo
- 30/12 : L'Black - BPM ft. Elys
- 30/12 : Scabreux - Los Enemigos
✓ 31/12 : Mr Crazy - Kola Lila ft. Lil Youbey (Paroles / الكلمات)
✓ 31/12 : L'Morphine - Black Horse (Paroles / الكلمات)
✓ 31/12 : Mimih - Lila Lila Ya Leyla ft. Loco (Paroles / الكلمات)
- 31/12 : A-Jey - Bo7di
- 31/12 : U7 - Khalihoum
- 31/12 : 9teen - LiiT!
- 31/12 : SkwilaGang - FassiMeknassi ft. Youss45
- 31/12 : Monkey Business Music - Machi Mouchkil
: أعمال مُعلنة وغير صادرة أو غير مكتملة7-Toun - Midnight
Ali Ssamid - Capitanos
Amine 16-3 - MolTrap
Der'k - Dadinho
DH - EP 772
Drizzy - Mexico
Drop - Sauce EP
Clasick Kid - The ZigZag Mixtape
Jocker - La Magie
Klass-A - Aura
L'3issaba Muzik - Foffo
L'Morphine - Ink
Lmoutchou - Makhlou9 3ajib
Madd - Black Rose
Mr Crazy - Auto Agressif
Mons - Têtu
Profit Za3im - Taha