[Intro: Timbaland]
Uh, hahaha! Can you feel me? Uh!
Say what, say what, uh!                          (Uh! Uh!)
Uh, hahaha! Can you feel me?
Usher, uh!                                       (Uh! What?)

[Chorus: Usher]
You make me wanna leave the one I'm with
Start a new relationship with you,               (Oh yeah... Baby!)
This is what you do!                             (Oooh, baby!)
Think about her and all the things
That come along with
You make me...                                   (You make me...)
You make me...                                   (... make me...)
... leave the one i'm with
Start a new realtionship with you,               (Ah, yeah...)
This is what you do!                             (... baby!)
Think about her and all the things
That come along with
You make me...
You make me...

[Verse 1: Usher]
Before anything began between us
You were like my best friend!
The one I used to run and talk to
When me and my girl was having problems!         (That's right!)
You used to say it'll be okay
Suggest little nice things I should do!
And when I go home at night
And lay my head down
All I seem to think about was you
And how...

[Chorus: Usher]
... you make me wanna leave the one I'm with
Start a new relationship with you,               (Ooh, yeah! Ooh, yeah!)
This is what you do!                             (Aah, yeah!)
Think about her and all the things
That come along with,                            (... come along with...)
You make me...                                   (You make me...)
You make me...                                   (You make me...)
Leave the one I'm with
Start a new realtionship with you,               (Ooh, baby!)
This is what you do!
Think about her and all the things               (Come on, come on, come
On,...)
That come along with,                            (... come on, come on!)
You make me...
You make me...

[Verse 2: Usher]
Now what's bad
Is you're the one that hooked us up!
Knowing it should've been you!
What's sad is that I love her
But I'm falling for you!
What should I do?
Should I...
... tell my baby bye-bye?
Should I...
... do exactly what I feel inside?
Cause I...
... I don't wanna go
Don't need to stay
But I really need to get it together!

[Chorus: Usher]
You make me wanna leave the one I'm with,        (UUH!)
Start a new relationship with you,               (Ooh Baby!)
This is what you do!                             (See what you do?)
Think about her and all the things               (Ah, yeah!!!)
That come along with
You make me...                                   (You make me...)
You make me...                                   (You make me...)
... leave the one i'm with
Start a new relationship with you,               (Ooh, baby!)
This is what you do!                             (This is what you do!)
Think about her and all the things               (Yeah!!!)
That come along with
You make me...                                   [Timbaland] Uh!
You make me...                                   [Timbaland] Uh!

[Verse 3: Timbaland]
Baby, it's kinda funny how...                    (Funny...)
... you make me feel!                            (... you make me feel!)
I bail with the ???                              (Uh!)
About my ???,                                    (What?)
But I never thought...
... that i would change my decision!             (Uh-uh!)
I wanna kiss you...
... and hold your hand with your permission!     (Uh-uh!)
Honey got me twisted in the head like a ???!
Burn like a ???
But I, but I, but I can't stop!
What can i say?                                  (Uh-uh!)
I wanna...
Be with you!                                     (Uh-uh!)
Usher bringin' the hook
I'm out!                                         (???)

[Chorus: Usher]
You make me wanna leave the one I'm with,        (You make, make, make me!)
Start a new relationship with you,               (YEAH!!!)
This is what you do!                             (Oh!)
Think about her and all the things               (Oh, you make, make...)
That come along with,                            (... make me!)
You make me...
You make me...                                   (Ooh!)
... leave the one I'm with,                      (Oh, baby!)
Start a new realtionship with you,               (Ooh, baby! ???)
This is what you do!                             (Uuuh...)
Think about her and all the things               (... uh, uh!)
That come along with,                            (... come along with it!)
You make me...                                   (You're making me...)
You make me...                                   (You're making me...)

[Hook: Usher]
Uh, you're making me, you're making me
You're making me!
Ooow! You make me...

[Chorus: Usher]
... leave the one I'm with,                      (... leave the one I'm with!)
Start a new relationship with you,               (??? some new shit!)
This is what you do!
Think about her and all the things               (Nananananananana...)
That come along with
You make me...
You make me...                                   (You make me, you make me...)

[Chorus: Usher]
... leave the one I'm with
Start a new relationship with you
This is what you do!
Think about her and all the things
That come along with
You make me...
You make me...
... leave the one i'm with
Start a new realtionship with you
This is what you do!
Think about her and all the things
That come along with
You make me...
You make me...

[Chorus: Usher]
... leave the one I'm with
Start a new relationship with you
This is what you do!
Think about her and all the things
That come along with
You make me...
You make me wanna leave the one I'm with
Start a new realtionship with you
This is what you do!
Think about her and all the things
That come along with
You make me...
You make me...