3/2
Deko - Moonkid Mondays, Vol. 1 - 6/7
Drakeo the Ruler - Free Drakeo - 11/14
Xavier Wulf & BONES - BRACE - 10/10

3/3
Juelz Santana - Free Santana - 10/10

3/4
Bankroll Fresh - In Bank We Trust - 12/12
Capolow - Room 304 - 2/16
Qveen Herby - Tiny Piano - 3/3

3/5
Lil Peep - Vertigo - EP - 4/4
Yung Mal - 6 Rings - 1/11

3/6
1PLAYY - Can't Have Her (Gift Pack) - 2/3
Anonymuz - Before the Night is Over - EP - 1/5
Aviators - The Cinematic Future - 14/14
Bandingo YGNE - Dingo - 0/11
Blacc Zacc - Carolina Narco - 3/11
Body Count - Carnivore - 3/11
Brandy Clark - Your Life is a Record - 11/11
C3llyPizzaz - Street Handsome - 1/6
Chef'Special - Unfold - 1/10
Cami - Monstruo, pt. 2 - EP - 6/6
Caroline Rose - Superstar - 1/11
Chief Keef - The GloFiles (Part 4) - 11/12
CJ Fly - Rudebwoy - 13/13
Cody Carnes - Run to the Father - 5/10
Dens - Taming Tongues - 4/11
DJ Kay Slay - Living Legend - 3/8
Ebenezer - Bad Romantic 2 - EP - 2/6
Elle Winter - Yeah, No. - EP - 6/6
flora cash - Baby, It's Okay - 12/12
Godemis - Deestro Mag: 3 - EP - 4/4
Grafh - The Oracle 3 - 1/15
Hot Mulligan - you’ll be fine - 11/11
Jadakiss - Ignatius - 13/13
Jhené Aiko - Chilombo - 20/20
Joel Adams - Joel Adams - EP - 5/5
Jonathan Wilson - Dixie Blur - 3/14
José James - No Beginning No End 2 - 12/12
Julianno Sosa - 898 - 2/9
King Von - LeVon James - 16/16
Lauren Alaina - Getting Good - EP - 6/6
Lauv - how i'm feeling - 21/21
Lil Uzi Vert - Eternal Atake - 18/18
Louly - 23 - 1/7
Love & the Outcome - You Got This - EP - 3/6
Mandy Moore - Silver Landings - 10/10
Matthew Morrison - Disney Dreamin’ with Matthew Morrison - 9/10
Medasin  - RIPPLS - 1/14
Megan Thee Stallion - Suga - EP - 9/9
Moby - All Visible Objects - 1/11
Nadia Reid - Out of My Province - 5/10
Noel Gallagher’s High Flying Birds - Blue Moon Rising - 3/3
Overcoats - The Fight - 4/10
Pacha Massive - Normal - 1/10
Paris Shadows - Lost Boy - 13/13
Passion - Roar - 5/12
Phantogram - Ceremony - 11/11
Rayven Justice - Do It Justice 2 - 2/12
ReptileLegit - Little Timmy's Cassette - 6/12
Rexx Life Raj - Rose Bowl - 2/2
Sea Girls - Under Exit Lights - EP - 3/6
ShaqIsDope - ShaqIsDope 1.5 - EP - 2/5
Silverstein - A Beautiful Place to Drown - 12/12
Sinéad Harnett - Lessons in Love: Acoustic - 7/7
Snarls - Burst - 10/10
$NOT - TRAGEDY - 12/12
SoFaygo - 4U - 3/3
Swamp Dogg - Sorry You Couldn’t Make It - 2/10
THEMXXNLIGHT - Double Trouble - 2/2
The New Regime - Heart Mind Body & Soul - 0/16
The New Regime - Soul - EP - 0/4
The Panhandlers - The Panhandlers - 1/10
Thick - 5 Years Behind - 4/11
Travis Mendes - Altered State - EP - 2/7
True Story Gee - Trap Melody Kid - 0/19
U.S. Girls - Heavy Light - 12/13
Various Artists - Songs for Australia
Watsky - Placement - 2/8
X Ambassadors - Belong - EP - 3/3
Yung Beef - Perreo de la Muerte 2.5 - 9/9

3/7
J Nanks - To Kill a Kingdom - 13/13
Jesse Baez - Nitro - EP - 6/6

3/8
​yxngxr1 - I Don't Suit Hats - 4/8

3/10
Jay Worthy - Two4One - 3/8
The Palmer Squares - With or Without It - 11/11

3/11
Crankdat - MECHANIZED MAYHEM - EP - 3/3
MAMAMOO - reality in BLACK (Japanese Edition) - 13/13

3/12
Tones and I - Bad Child / Can’t Be Happy All the Time - 2/2
twikipedia - die - 12/12

3/13
070 Phi - My Father’s Gun - 0/10
ALMA - Have U Seen Her? (Part II) - 3/3
Bear Grillz - Reanimated - EP - 2/6
Big Freedia - Louder - EP - 5/5
Blueface - Find the Beat - 16/16
Caitlyn Smith - Supernova - 12/12
Charlotte Dos Santos - Harvest Time - EP - 5/5
CHIKA - INDUSTRY GAMES - EP - 7/7
Circa Waves - Sad Happy - 15/15
CocoRosie - Put the Shine On - 12/12
Code Orange - Underneath - 14/14
Curren$y & Fendi P - Smokin' Potnas - 5/9
Dax - I’ll Say It for You - 7/7
Deap Lips, Deap Vally & the Flaming Lips - Deap Lips - 7/10
DJ Esco & Doe Boy - 56 BIRDZ - 0/9
Don Toliver - Heaven or Hell - 11/11
Felly - Mariposa - 11/11
Fito Páez - La Conquista del Espacio - 9/9
Flash Gottii - 2020 Vision - 1/8
Four Tet - Sixteen Oceans - 16/16
goodnightm4rk - NIGHTMARES - 3/6
Grouplove - Healer - 11/11
Halsey - You should be sad (Remixes) - 2/2
HARLOE - Rivers Run Dry - EP - 5/5
Jack Harlow - Sweet Action - EP - 7/7
Jah9 - Note to Self - 2/15
James Righton - The Performer - 3/9
Jay Electronica - A Written Testimony - 10/10
Jelly Roll - A Beautiful Disaster - 12/12
JFDR - New Dreams - 11/11
JL - The Devil Hates Sundays Chapter: 2 - EP - 4/4
Joey Fatts - Don’t Wait 'Til I Die to Love Me - 0/8
Jonathan Hultén - Chants from Another Place - 0/12
Joywave - Possession - 12/12
Juanka - UPRISING - 15/16
King Iso - World War Me - 23/23
Koven - Butterfly Effect - 14/14
Krizz Kaliko - Eternal - EP - 4/4
Lauren Ruth Ward - VOL. II - 11/11
Like Saturn - Alpharetta - EP - 1/4
Lil Dude & Goonew - Homicide Boyz 2 - 0/12
Lil Uzi Vert - Eternal Atake (Deluxe) – LUV vs. The World 2 - 32/32
Magdalena Bay - A Little Rhythm and a Wicked Feeling - 8/8
MAJ - Majestic - 8/8
Niall Horan - Heartbreak Weather - 14/14
Ocean Grove - Flip Phone Fantasy - 12/12
Peter Bjorn and John - Endless Dream - 4/10
POORSTACY - The Breakfast Club - 13/13
Porches - Ricky Music - 11/11
Porridge Radio - Every Bad - 11/11
renforshort - teenage angst - EP - 7/7
Rich the Kid - BOSS MAN - 19/19
Seafret - Most of Us Are Strangers - 12/12
Soleima - Powerslide - 3/10
Sub Urban - Thrill Seeker - EP - 7/7
Suigeneris - Demons 'n' Angels - 9/16
Rebecca Black - Self Sabotage/Closer - 2/2
Rory Fresco - Rated R - 0/11
Tainy - NEON16 TAPE: THE KIDS THAT GREW UP ON
REGGAETON - 7/7
TEC - Web Life, Vol. 3 - 1/11
THE ANXIETY - THE ANXIETY - 10/10
The Districts - You Know I'm Not Going Anywhere - 6/11
The Garden - Kiss My Super Bowl Ring - 11/11
The Shires - Good Years - 12/12
Two Feet - Pink - 13/13
Ultraista - Sister - 3/9
Various Artists - Stargirl (Original Soundtrack) - 19/19
Various Artists - TROLLS: World Tour (Original Motion Picture Soundtrack) - 20/20
Vundabar - Either Light - 3/11
Wasted Away - Numb on the Inside 7/7
Yumi Zouma - Truth or Consequences - 4/10

3/14
Polartropica - DREAMS COME TRUE - 3/10

3/16
Die Antwoord - House of Zef - 12/12
Sybyr - Byrrage - 6/6

3/17
Da$h - Walk The Plank - 7/10
Stitches - Married to the Bricks - 3/10

3/18
24Heavy - Pandemic - 3/13
Breadwinna Gdawg - 4 Headed Goat - 1/16
Jake Hill - Autumn Gloom - 10/10
Marian Hill - was it not - EP - 6/6

3/19
Dalex - Modo Avión - 9/9
J Balvin - Colores - 10/10
Love Fame Tragedy - Five Songs To Briefly Fill The Void - 5/5

3/20
1982 - The Quarantine - 0/10
Alex Campos - Soldados - 1/10
Adam Lambert - VELVET - 13/13
Baxter Dury - The Night Chancers - 3/10
Big Fox - See How The Light Falls - 10/10
Big Tobz - Issa Vibe - 4/15
Conan Gray - Kid Krow - 12/12
Curtis Williams - Zip Skylark 2: The Wrath of Danco - 0/20
Dvicio - Impulso - 4/12
Eliza & The Delusionals - A State of Living in an Objective Reality - EP - 3/5
Fleur East - Fearless - 4/13
Foley - On My Conscience - EP - 5/5
Gordon Lightfoot - Solo - 1/10
Haru Nemuri - LOVETHEISM - 1/7
Heaven Shall Burn - Of Truth and Sacrifice - 4/19
Helen Money - Atomic - 0/11
ieuan - SWEET BOY - 1/5
James Righton - The Performer - 3/9
JJ Shiplett - Fingers Crossed - 0/7
Kelsea Ballerini - kelsea - 13/13
Låpsley - Through Water - 10/10
Mac Miller - Circles (Deluxe) - 14/14
MDMA - GENIE (Deluxe) - 7/11
Melvoni - Who TF Is Melvoni?
Moaning - Uneasy Laughter - 3/13
Morrissey - I Am Not a Dog on a Chain - 9/11
Only One Felipe - Thank You for Not Believing - 2/14
Rio Da Yung OG - City on My Back - 3/15
Sada Baby - Skuba Sada 2 - 9/9
Sada Baby - Skuba Sada 2 (Deluxe) - 11/11
Sarah Close - And Now, We're Shining - 5/7
The Glitch Mob - Chemicals - EP - 1/3
The Weeknd - After Hours - 14/14
TOKiMONSTA - Oasis Nocturno - 2/12
TyFontaine - Virtual World - 5/5
Woodie Smalls - In Between Spaces - 3/12
Yael Naim - NightSongs - 2/12
Young T & Bugsey - Plead The 5th - 9/12
Xanman - I'm A Bad Person - 16/16
Zebra Katz - LESS IS MOOR - 4/15

3/21
Aaron Golden - Novacane - 2/10
MuddyMya - MUDBATH - 0/5

3/22
Childish Gambino - 3.15.20 - 12/12
Xavier Wulf & Idontknowjeffery - Bennington Forest - 7/12

3/23
The Weeknd - After Hours (Deluxe) - 19/19

3/24
Justin Bieber - R&Bieber - EP - 5/5
Pabllo Vittar - 111 - 9/9
RobGz - La Historia de Nunca Acabar - EP - 1/6

3/25
JAHMED - THEBOOFMOBILE - 3/8
James Vickery - Overture - EP - 6/6

3/26
brakence - punk2 - 8/10
Justin Bieber - Work from Home - EP - 5/5
Nine Inch Nails - Ghosts V: Together - 8/8
Nine Inch Nails - Ghosts VI: Locusts - 15/15
Trevor Daniel - Nicotine - 10/10
William Bolton - Electric Soul - 11/11

3/27
42 Dugg - Young & Turnt Vol. 2 - 6/14
5 Seconds of Summer - CALM - 12/12
5 Seconds of Summer - CALM (Deluxe) - 15/15
Ada Lea - woman, here EP - 4/4
Ari Lennox - Shea Butter Baby (Remix EP) - 3/3
Aura Dione - Fearless Lovers - EP - 4/4
Ayreon - Electric Castle Live and Other Tales - 0/25
Azure Ryder - Running with the Wolves - EP - 4/4
B La B - WHO I BE - 0/9
BABii - iii - EP - 0/3
Bars and Melody - SADBOI - 9/12
Basia Bulat - Are You in Love? - 3/13
Bon Iver - Blood Bank (10th Anniversary Edition) - EP - 4/8
Braxton Cook - Fire Sign - 4/8
Brian Fallon - Local Honey - 8/8
Cable Ties - Far Enough - 0/8
Candlemass - The Pendulum - 1/6
Cavetown - Sleepyhead - 11/11
CG5 - Patiently - 4/8
Clara - Growing Up Sucks - 10/12
Comethazine - PANDEMIC - 12/12
Dana Gavanski - Yesterday Is Gone - 10/10
Da Shiznit - DS Tapes Vol. 3 - 4/10
Delacey - Black Coffee - 13/13
Dion Timmer - Enter Achroma - 14/14
Dirty Projectors - Windows Open - EP - 4/4
Dua Lipa - Future Nostalgia - 11/11
Duchess - Early Days - EP - 3/4
Duke Dumont - Duality - 4/10
Enzo and the Glory Ensemble - In the Name of the World Spirit - 0/13
Giveon - Take Time - 8/8
Half Waif - The Caretaker - 11/11
Ingrid Andress - Lady Like - 8/8
In This Moment - Mother - 14/14
Izzy Camina - Nihilist in the Club - EP - 5/5
Jeezy - 20/Twenty Pyrex Vision - 7/7
Jeremiah Lloyd Harmon - Namesake - 11/11
Jessie Reyez - BEFORE LOVE CAME TO KILL US - 14/14
Jessie Reyez - BEFORE LOVE CAME TO KILL US (Target Exclusive) - 17/17
Joey Cool - Coolie High, Vol. 2 - EP - 4/4
Joey Trap - Champ - 11/11
Joyner Lucas - ADHD - 18/18
Jubël - Strawtown - EP - 4/6
Kevin Rolly - Rude - 0/13
Knxwledge - 1988 - 22/22
Lil Loski - Sacrifices - 1/10
Lilly Hiatt - Walking Proof - 0/11
Little Dragon - New Me, Same Us - 11/11
Lizzy Farrall - Bruise - 9/10
Loud Luxury - Nights Like This - EP - 4/4
Maez301 - Hasaan Phase 2 - EP - 2/4
Magic Sword - Endless - 3/11
Margaret Glaspy - Devotion - 12/12
Me and That Man - New Man, New Songs, Same Shit, Vol 1 - 11/11
Melt Yourself Down - 100% Yes - 3/10
MKULTRA - Green Guy - 11/11
Nap Eyes - Snapshot of a Beginner - 9/11
Nef The Pharaoh - CHANGSZN - 1/8
Nicolás Jaar - Cenizas - 11/13
Orion Sun - Hold Space for Me - 11/11
PARTYNEXTDOOR - PARTYMOBILE - 15/15
Pasto Flocco - March Madness - 12/13
Pearl Jam - Gigaton - 12/12
Quin NFN - Quincho - 7/10
Rend Collective - CHOOSE TO WORSHIP - 13/13
Ringo Deathstarr - Ringo Deathstarr - 0/13
RonSoCold - RonSoCold - 8/15
San Cisco - Flaws - EP - 4/4
San Fermin - The Cormorant I & II - 15/16
Seven Lions - Find Another Way - 5/5
shallou - Magical Thinking - 12/12
Skepta, Chip & Young Adz - Insomnia - 12/12
Slim Thug - Thug Life - 2/10
Stove God Cooks & Roc Marciano - Reasonable Drought - 0/12
Striking Matches - Night EP - 4/4
Tank - While You Wait - EP - 6/6
Temple of Void - The World That Was - 2/6
The Birthday Massacre - Diamonds - 9/9
The Boyboy West Coast - Anxiety & Depression - 3/13
The Chats - High Risk Behaviour - 14/14
The Orb - Abolition of the Royal Familia - 0/12
Vanderslice - Trendsetter - 0/7
Vanessa Carlton - Love is an Art - 11/11
VEDO - For You - 10/13
Waxahatchee - Saint Cloud - 11/11
Wrekonize - Pressure Point, Meridian 1 - EP - 4/4
Yorke - Liberosis - EP - 7/7

3/30
Conway the Machine & The Alchemist - LULU - 7/7
The Weeknd - After Hours (Deluxe 2) - 22/22

3/31
GP - March Comes in Like a Lion - 2/9
Justin Bieber - Biebs and Chill - 5/5